digraph "Graphical Class Hierarchy"
{
  edge [fontname="Helvetica",fontsize="10",labelfontname="Helvetica",labelfontsize="10"];
  node [fontname="Helvetica",fontsize="10",shape=record];
  rankdir="LR";
  Node1 [label="BinarySearchTree\< TK,\l TD \>",height=0.2,width=0.4,color="black", fillcolor="white", style="filled",URL="$classBinarySearchTree.html",tooltip="A template binary search tree class that takes a KEY and a DATA. "];
}
