CAR STATS

Total cars:              28695     
Tree height:             36        
Cheapest car:            1000.21        subaru              hungry bat          
Most expensive car:      100001         volkswagen          muffled dwarf-crocodile
