^F:\EDUCATION\JCCC\2018-1SPRING-CS250-CPP3\BIT_BUCKET_WIN7\CS_250\PROJECTS\03_BINARY_SEARCH_TREE\VS_PROJECT\CUTEST\TESTERBASE.CPP
/c /ZI /nologo /W3 /WX- /diagnostics:classic /sdl /Od /Oy- /D _MBCS /Gm- /EHsc /RTC1 /MDd /GS /fp:precise /permissive- /Zc:wchar_t /Zc:forScope /Zc:inline /Fo"DEBUG\\" /Fd"DEBUG\VC141.PDB" /Gd /TP /analyze- /FC F:\EDUCATION\JCCC\2018-1SPRING-CS250-CPP3\BIT_BUCKET_WIN7\CS_250\PROJECTS\03_BINARY_SEARCH_TREE\VS_PROJECT\CUTEST\TESTERBASE.CPP
^F:\EDUCATION\JCCC\2018-1SPRING-CS250-CPP3\BIT_BUCKET_WIN7\CS_250\PROJECTS\03_BINARY_SEARCH_TREE\VS_PROJECT\CARPROGRAM.CPP
/c /ZI /nologo /W3 /WX- /diagnostics:classic /sdl /Od /Oy- /D _MBCS /Gm- /EHsc /RTC1 /MDd /GS /fp:precise /permissive- /Zc:wchar_t /Zc:forScope /Zc:inline /Fo"DEBUG\\" /Fd"DEBUG\VC141.PDB" /Gd /TP /analyze- /FC F:\EDUCATION\JCCC\2018-1SPRING-CS250-CPP3\BIT_BUCKET_WIN7\CS_250\PROJECTS\03_BINARY_SEARCH_TREE\VS_PROJECT\CARPROGRAM.CPP
^F:\EDUCATION\JCCC\2018-1SPRING-CS250-CPP3\BIT_BUCKET_WIN7\CS_250\PROJECTS\03_BINARY_SEARCH_TREE\VS_PROJECT\MAIN.CPP
/c /ZI /nologo /W3 /WX- /diagnostics:classic /sdl /Od /Oy- /D _MBCS /Gm- /EHsc /RTC1 /MDd /GS /fp:precise /permissive- /Zc:wchar_t /Zc:forScope /Zc:inline /Fo"DEBUG\\" /Fd"DEBUG\VC141.PDB" /Gd /TP /analyze- /FC F:\EDUCATION\JCCC\2018-1SPRING-CS250-CPP3\BIT_BUCKET_WIN7\CS_250\PROJECTS\03_BINARY_SEARCH_TREE\VS_PROJECT\MAIN.CPP
