^F:\EDUCATION\JCCC\2018-1SPRING-CS250-CPP3\BIT_BUCKET_WIN7\CS_250\PROJECTS\03_BINARY_SEARCH_TREE\VS_PROJECT\PROJECT1\PROJECT1\DEBUG\CARPROGRAM.OBJ|F:\EDUCATION\JCCC\2018-1SPRING-CS250-CPP3\BIT_BUCKET_WIN7\CS_250\PROJECTS\03_BINARY_SEARCH_TREE\VS_PROJECT\PROJECT1\PROJECT1\DEBUG\MAIN.OBJ|F:\EDUCATION\JCCC\2018-1SPRING-CS250-CPP3\BIT_BUCKET_WIN7\CS_250\PROJECTS\03_BINARY_SEARCH_TREE\VS_PROJECT\PROJECT1\PROJECT1\DEBUG\TESTERBASE.OBJ
F:\EDUCATION\JCCC\2018-1SPRING-CS250-CPP3\BIT_BUCKET_WIN7\CS_250\PROJECTS\03_BINARY_SEARCH_TREE\VS_PROJECT\PROJECT1\DEBUG\PROJECT1.EXE
F:\EDUCATION\JCCC\2018-1SPRING-CS250-CPP3\BIT_BUCKET_WIN7\CS_250\PROJECTS\03_BINARY_SEARCH_TREE\VS_PROJECT\PROJECT1\DEBUG\PROJECT1.ILK
F:\EDUCATION\JCCC\2018-1SPRING-CS250-CPP3\BIT_BUCKET_WIN7\CS_250\PROJECTS\03_BINARY_SEARCH_TREE\VS_PROJECT\PROJECT1\DEBUG\PROJECT1.PDB
