
PREORDER:
1.1 30473.9 15570.6 11812.8 8916.22 5602.85 2679.27 2022.97 333.33 2480.76 5727.84 6411.94 6059.75 6823.51 10139.6 10650 11477.2 11105.6 11659.3 14074.1 12610.9 22663.9 16129.3 20140.4 18852.7 19876.5 22110.6 22294.9 29087.7 26632.5 23286.2 25743.6 27565.3 29040.4 45460.4 37308.2 31750.9 31506.5 31105.9 35607.4 35561.4 32488.6 32333.6 43571.5 43105.4 38938.2 38517.4 39323.3 40129.8 44267.1 44467 72644.5 52277.6 46310.6 48402.7 50195.9 55307.8 53779.4 71657.9 56881.5 57924.4 68120.9 63945.5 63776.1 58459.8 65009.6 64095.3 66176.9 67006.7 68326.3 70194 72207.9 72469.7 79599.7 74271.4 73943 72979.4 78825.1 76160.4 79106.8 99655.3 80946.2 79981.6 80871 80327.8 94218.7 90881.6 84261.9 81864.7 82061.3 90058.1 92492.8 92390.6 91513.6 97969.8 96757.7 94595.5 94396.5 99615.2 99933.8 99760.5 

