CAR STATS

Total cars:              999       
Tree height:             26        
Cheapest car:            1.1            GKMake              GKModel             
Most expensive car:      99945.5        honda               perfumed flounder   
